Calculate paired usage of V(D)J segments across chains — calc_gene_pairs • djvdj
…
    See also

    plot_gene_pairs(), calc_gene_usage(), plot_gene_usage()

    Examples

# Calculate the frequency of different V genes for IGH and IGK chains
calc_gene_pairs(
  vdj_sce,
  data_col    = "v_gene",
  chains      = c("IGH", "IGK"),
  cluster_col = "orig.ident"
)
#> # A tibble: 52 × 7
#>    IGH      IGK        orig.ident n_cells  freq   pct shared
#>    <chr>    <chr>      <chr>        <dbl> <int> <dbl> <lgl> 
#>  1 None     IGKV5-43   avid_2          33    21 63.6  TRUE  
#>  2 None     IGKV5-43   avid_1          27    10 37.0  TRUE  
#>  3 None     IGKV8-24   avid_1          27     2  7.41 FALSE 
#>  4 None     IGKV3-4    avid_1          27     2  7.41 FALSE 
#>  5 None     IGKV6-23   avid_2          33     2  6.06 FALSE 
#>  6 None     IGKV17-127 avid_2          33     2  6.06 FALSE 
#>  7 None     IGKV4-54   avid_1          27     1  3.70 FALSE 
#>  8 IGHV1-26 IGKV12-44  avid_1          27     1  3.70 FALSE 
#>  9 IGHV6-3  IGKV6-23   avid_1          27     1  3.70 FALSE 
#> 10 IGHV10-1 None       avid_1          27     1  3.70 FALSE 
#> # ℹ 42 more rows
…
