V(D)J analysis • djvdj
…
so_avid <- import_vdj(
  input         = so_avid,                  # Seurat object
  vdj_dir       = paths,                    # cellranger directories
  filter_chains = TRUE,                     # Only include productive chains
  filter_paired = FALSE                     # Only include clonotypes with paired chains
)

Take a look at the meta.data to see the V(D)J data added to the object.

so_avid@meta.data %>%
  as_tibble() %>%
  select(19:35)
#> # A tibble: 7,137 × 17
#>    clonotype_id chains  n_chains cdr3   cdr3_nt cdr3_length cdr3_nt_length
#>    <chr>        <chr>      <int> <chr>  <chr>   <chr>       <chr>         
#>  1 clonotype91  IGH;IGK        2 CVKGY… TGTGTG… 14;10       42;30         
#>  2 NA           NA            NA NA     NA      NA          NA            
#>  3 clonotype92  IGH;IGK        2 CARGR… TGTGCA… 13;11       39;33         
#>  4 NA           NA            NA NA     NA      NA          NA            
#>  5 NA           NA            NA NA     NA      NA          NA            
#>  6 NA           NA            NA NA     NA      NA          NA            
#>  7 NA           NA            NA NA     NA      NA          NA            
#>  8 clonotype94  IGH;IGK        2 CTVSY… TGTACC… 14;11       42;33         
#>  9 clonotype95  IGH;IGK        2 CARSY… TGTGCA… 17;11       51;33         
#> 10 clonotype96  IGH;IGK        2 CARSR… TGTGCA… 9;11        27;33         
#> # … with 7,127 more rows, and 10 more variables: v_gene <chr>,
#> #   d_gene <chr>, j_gene <chr>, c_gene <chr>, isotype <chr>, reads <chr>,
#> #   umis <chr>, productive <chr>, full_length <chr>, paired <lgl>
…
Gene Usage

The V(D)J data imported from Cell Ranger also includes the V(D)J identified for each chain. The function calc_gene_usage() will calculate the fraction of cells expressing each V(D)J gene and produce a table summarizing the results. The chain argument can be used to specify the chain(s) to use for calculating gene usage, by default results for all chains will be included.

In this example we are summarizing the usage of different V segments for the IGH chain

calc_gene_usage(
  input       = so_avid,
  gene_cols   = "v_gene",                   # Column containing genes
  cluster_col = "mouse",                    # Column containing cell clusters to compare
  chain       = "IGH",                      # Chain to calculate gene usage for
  chain_col   = "chains"                    # Column containing chains
)
#> # A tibble: 192 × 5
#>    v_gene   mouse n_cells  freq    pct
#>    <chr>    <chr>   <dbl> <int>  <dbl>
#>  1 IGHV1-11 BL6      3694     2 0.0541
#>  2 IGHV1-11 MD4       126     0 0     
#>  3 IGHV1-12 BL6      3694    27 0.731 
#>  4 IGHV1-12 MD4       126     0 0     
#>  5 IGHV1-15 BL6      3694    75 2.03  
#>  6 IGHV1-15 MD4       126     0 0     
#>  7 IGHV1-18 BL6      3694    82 2.22  
#>  8 IGHV1-18 MD4       126     0 0     
#>  9 IGHV1-19 BL6      3694    59 1.60  
#> 10 IGHV1-19 MD4       126     0 0     
#> # … with 182 more rows
…
