BCR analysis • djvdj
…
# Take a look at the meta.data
vdj_cols <- c(
  "clonotype_id", "cdr3",
  "chains", "v_gene", 
  "j_gene", "reads",
  "umis"
)

so_bcr@meta.data %>%
  as_tibble() %>%
  filter(!is.na(clonotype_id)) %>%
  select(all_of(vdj_cols))
#> # A tibble: 15,438 x 7
#>    clonotype_id     cdr3              chains  v_gene      j_gene  reads   umis  
#>    <chr>            <chr>             <chr>   <chr>       <chr>   <chr>   <chr> 
#>  1 1_ABA_015_clono… CARVFRDLAVAGTLWF… IGH;IGL IGHV4-61;I… IGHJ5;… 1464;1… 11;26 
#>  2 1_ABA_015_clono… CAKGAREWELRRHSYY… IGH;IGK IGHV3-23;I… IGHJ4;… 2646;8… 24;61 
#>  3 1_ABA_015_clono… CARLGYGDKDYW;CQQ… IGH;IGK IGHV4-59;I… IGHJ4;… 2296;6… 15;38 
#>  4 1_ABA_015_clono… CTSPSKHYYYYYMDVW… IGH;IGL IGHV3-73;I… IGHJ6;… 2996;3… 24;42 
#>  5 1_ABA_015_clono… CARQSGTYDYW;CQAW… IGH;IGL IGHV1-2;IG… IGHJ4;… 1112;5… 11;59 
#>  6 1_ABA_015_clono… CVREGITMIVVSTLSY… IGH;IGL IGHV3-7;IG… IGHJ4;… 36010;… 4584;…
#>  7 1_ABA_015_clono… CARIVVKNYYDSSGYY… IGH;IGK IGHV2-26;I… IGHJ4;… 3542;3… 26;26 
#>  8 1_ABA_015_clono… CAVHGTGPIIMPPGNY… IGH;IGK IGHV1-46;I… IGHJ6;… 27246;… 5345;…
#>  9 1_ABA_015_clono… CARDGGRWYPGAFDIW… IGH;IGK IGHV3-21;I… IGHJ3;… 3706;7… 30;47 
#> 10 1_ABA_015_clono… CARGGATMGPDGAFDI… IGH;IGL IGHV4-61;I… IGHJ3;… 3244;8… 22;89 
#> # … with 15,428 more rows
…
The V(D)J data imported from Cell Ranger will include clonotypes that do not have paired alpha and beta chains. Using the mutate_vdj function, we can add a new cell label to the meta.data to allow for easy visualization of these cells.

In this example we create a new column that summarizes the unique chains identified for each cell. We can then overlay these cell labels on a UMAP projection.

so_bcr <- mutate_vdj(
  sobj_in     = so_bcr,                                # Seurat object
  uniq_chains = str_c(unique(chains), collapse = "_")  # New column
)

# Take a look at the meta.data
so_bcr@meta.data %>%
  as_tibble() %>%
  filter(!is.na(clonotype_id), n_chains > 2) %>%
  select(all_of(vdj_cols), uniq_chains)
#> # A tibble: 1,095 x 8
#>    clonotype_id  cdr3        chains  v_gene    j_gene   reads  umis  uniq_chains
#>    <chr>         <chr>       <chr>   <chr>     <chr>    <chr>  <chr> <chr>      
#>  1 1_ABA_015_cl… CARDGYGSGI… IGH;IG… IGHV1-18… IGHJ4;I… 4850;… 29;3… IGH_IGK_IGL
#>  2 1_ABA_015_cl… CAREGYYYDS… IGH;IG… IGHV4-61… IGHJ4;I… 1688;… 11;3… IGH_IGL    
#>  3 1_ABA_015_cl… CARGLFGGTQ… IGH;IG… IGHV3-11… IGHJ4;I… 3960;… 28;1… IGH_IGK_IGL
#>  4 1_ABA_015_cl… CATYDSSGPW… IGH;IG… IGHV1-46… IGHJ3;I… 4550;… 35;1… IGH_IGK_IGL
#>  5 1_ABA_015_cl… CAKGDYYDSS… IGH;IG… IGHV3-23… IGHJ6;I… 438;5… 4;4;… IGH_IGK    
#>  6 1_ABA_015_cl… CARDPFSVTM… IGH;IG… IGHV1-69… IGHJ4;I… 3742;… 29;1… IGH_IGK_IGL
#>  7 1_ABA_015_cl… CARRSSAAPR… IGH;IG… IGHV5-51… IGHJ6;I… 3422;… 24;5… IGH_IGK_IGL
#>  8 1_ABA_015_cl… CARVKSWFDP… IGH;IG… IGHV1-2;… IGHJ5;I… 5538;… 48;2… IGH_IGK    
#>  9 1_ABA_015_cl… CAKHKVATMY… IGH;IG… IGHV3-23… IGHJ4;I… 3572;… 25;3… IGH_IGK    
#> 10 1_ABA_015_cl… CTTADFWSGS… IGH;IG… IGHV3-15… IGHJ4;I… 1958;… 15;6… IGH_IGK_IGL
#> # … with 1,085 more rows
…
Clonotypes that lack paired alpha and beta chains can be removed from the meta.data using filter_vdj. With this function cells that match the provided condition are filtered from the object. Setting filter_cells to FALSE will just remove the V(D)J data without completely removing these cells.

so_filt <- filter_vdj(
  sobj_in      = so_bcr,
  filt         = "IGH" %in% chains && any(c("IGL", "IGK") %in% chains),
  filter_cells = FALSE
)

# Take a look at the meta.data
so_filt@meta.data %>%
  as_tibble() %>%
  filter(!is.na(clonotype_id)) %>%
  select(all_of(vdj_cols))
#> # A tibble: 14,735 x 7
#>    clonotype_id     cdr3              chains  v_gene      j_gene  reads   umis  
#>    <chr>            <chr>             <chr>   <chr>       <chr>   <chr>   <chr> 
#>  1 1_ABA_015_clono… CARVFRDLAVAGTLWF… IGH;IGL IGHV4-61;I… IGHJ5;… 1464;1… 11;26 
#>  2 1_ABA_015_clono… CAKGAREWELRRHSYY… IGH;IGK IGHV3-23;I… IGHJ4;… 2646;8… 24;61 
#>  3 1_ABA_015_clono… CARLGYGDKDYW;CQQ… IGH;IGK IGHV4-59;I… IGHJ4;… 2296;6… 15;38 
#>  4 1_ABA_015_clono… CTSPSKHYYYYYMDVW… IGH;IGL IGHV3-73;I… IGHJ6;… 2996;3… 24;42 
#>  5 1_ABA_015_clono… CARQSGTYDYW;CQAW… IGH;IGL IGHV1-2;IG… IGHJ4;… 1112;5… 11;59 
#>  6 1_ABA_015_clono… CVREGITMIVVSTLSY… IGH;IGL IGHV3-7;IG… IGHJ4;… 36010;… 4584;…
#>  7 1_ABA_015_clono… CARIVVKNYYDSSGYY… IGH;IGK IGHV2-26;I… IGHJ4;… 3542;3… 26;26 
#>  8 1_ABA_015_clono… CAVHGTGPIIMPPGNY… IGH;IGK IGHV1-46;I… IGHJ6;… 27246;… 5345;…
#>  9 1_ABA_015_clono… CARDGGRWYPGAFDIW… IGH;IGK IGHV3-21;I… IGHJ3;… 3706;7… 30;47 
#> 10 1_ABA_015_clono… CARGGATMGPDGAFDI… IGH;IGL IGHV4-61;I… IGHJ3;… 3244;8… 22;89 
#> # … with 14,725 more rows
…
Clonotypes that do not have adequate UMI support can be filtered from the object using filter_vdj. In this example we filter for clonotypes that have chains supported by at least two UMIs.

so_bcr <- filter_vdj(
  sobj_in      = so_bcr,         # Seurat object
  filt         = all(umis > 1),  # Condition for filtering
  filter_cells = FALSE           # Should cells be removed from object
)

# Take a look at the meta.data
so_bcr@meta.data %>%
  as_tibble() %>%
  filter(!is.na(clonotype_id)) %>%
  select(all_of(vdj_cols))
#> # A tibble: 15,260 x 7
#>    clonotype_id     cdr3              chains  v_gene      j_gene  reads   umis  
#>    <chr>            <chr>             <chr>   <chr>       <chr>   <chr>   <chr> 
#>  1 1_ABA_015_clono… CARVFRDLAVAGTLWF… IGH;IGL IGHV4-61;I… IGHJ5;… 1464;1… 11;26 
#>  2 1_ABA_015_clono… CAKGAREWELRRHSYY… IGH;IGK IGHV3-23;I… IGHJ4;… 2646;8… 24;61 
#>  3 1_ABA_015_clono… CARLGYGDKDYW;CQQ… IGH;IGK IGHV4-59;I… IGHJ4;… 2296;6… 15;38 
#>  4 1_ABA_015_clono… CTSPSKHYYYYYMDVW… IGH;IGL IGHV3-73;I… IGHJ6;… 2996;3… 24;42 
#>  5 1_ABA_015_clono… CARQSGTYDYW;CQAW… IGH;IGL IGHV1-2;IG… IGHJ4;… 1112;5… 11;59 
#>  6 1_ABA_015_clono… CVREGITMIVVSTLSY… IGH;IGL IGHV3-7;IG… IGHJ4;… 36010;… 4584;…
#>  7 1_ABA_015_clono… CARIVVKNYYDSSGYY… IGH;IGK IGHV2-26;I… IGHJ4;… 3542;3… 26;26 
#>  8 1_ABA_015_clono… CAVHGTGPIIMPPGNY… IGH;IGK IGHV1-46;I… IGHJ6;… 27246;… 5345;…
#>  9 1_ABA_015_clono… CARDGGRWYPGAFDIW… IGH;IGK IGHV3-21;I… IGHJ3;… 3706;7… 30;47 
#> 10 1_ABA_015_clono… CARGGATMGPDGAFDI… IGH;IGL IGHV4-61;I… IGHJ3;… 3244;8… 22;89 
#> # … with 15,250 more rows
…
