Gene Usage • djvdj
…
Calculating gene usage

The calc_gene_usage() function will calculate the number
of cells (‘freq’) and percentage of cells (‘pct’) with each gene in the
data_cols column(s). The ‘n_cells’ column shows the total
number of cells used for calculating percentages. By default these
results are added to the object meta.data, to return a data.frame set
return_df to TRUE.

so |>
  calc_gene_usage(
    data_cols = "v_gene",
    return_df = TRUE
  )
#> # A tibble: 103 × 4
#>    v_gene     n_cells  freq   pct
#>    <chr>        <int> <int> <dbl>
#>  1 IGKV5-43       329   156 47.4 
#>  2 IGKV10-96      329    14  4.26
#>  3 IGKV6-17       329     9  2.74
#>  4 IGLV1          329     9  2.74
#>  5 IGKV14-111     329     8  2.43
#>  6 IGKV1-117      329     7  2.13
#>  7 IGKV13-84      329     7  2.13
#>  8 IGKV1-135      329     6  1.82
#>  9 IGKV19-93      329     6  1.82
#> 10 IGKV3-4        329     6  1.82
#> # ℹ 93 more rows

To perform gene usage calculations separately for cell clusters (or
samples), provide the meta.data column containing cluster labels to the
cluster_col argument. Here we see that the MD4 samples
almost exclusively use a single V segment (IGKV5-43), which is expected
since MD4 B cells are monoclonal.

so |>
  calc_gene_usage(
    data_cols   = "v_gene",
    cluster_col = "sample",
    return_df   = TRUE
  )
#> # A tibble: 618 × 6
#>    v_gene     sample n_cells  freq    pct shared
#>    <chr>      <chr>    <dbl> <int>  <dbl> <lgl> 
#>  1 IGKV5-43   MD4-2       55    55 100    TRUE  
#>  2 IGKV5-43   MD4-3       54    51  94.4  TRUE  
#>  3 IGKV5-43   MD4-1       50    47  94    TRUE  
#>  4 IGKV10-96  BL6-1       55     6  10.9  TRUE  
#>  5 IGKV10-96  BL6-3       52     5   9.62 TRUE  
#>  6 IGKV14-111 BL6-2       63     6   9.52 TRUE  
#>  7 IGLV1      BL6-3       52     4   7.69 TRUE  
#>  8 IGHV6-6    BL6-1       55     4   7.27 FALSE 
#>  9 IGKV6-17   BL6-2       63     4   6.35 TRUE  
#> 10 IGKV8-24   BL6-2       63     4   6.35 FALSE 
#> # ℹ 608 more rows

To only perform calculations for a specific chain, use the
chain argument. In this example we are only returning
results for the IGK chain. Here we see some values in the ‘v_gene’
column labeled as ‘None’, this shows the number of cells that did not
have a V gene segment identified.

so |>
  calc_gene_usage(
    data_cols   = "v_gene",
    cluster_col = "sample",
    chain       = "IGK",
    return_df   = TRUE
  )
#> # A tibble: 336 × 6
#>    v_gene     sample n_cells  freq    pct shared
#>    <chr>      <chr>    <dbl> <int>  <dbl> <lgl> 
#>  1 IGKV5-43   MD4-2       55    55 100    TRUE  
#>  2 IGKV5-43   MD4-3       54    51  94.4  TRUE  
#>  3 IGKV5-43   MD4-1       50    47  94    TRUE  
#>  4 IGKV10-96  BL6-1       55     6  10.9  TRUE  
#>  5 IGKV10-96  BL6-3       52     5   9.62 TRUE  
#>  6 None       BL6-3       52     5   9.62 TRUE  
#>  7 IGKV14-111 BL6-2       63     6   9.52 TRUE  
#>  8 IGKV6-17   BL6-2       63     4   6.35 TRUE  
#>  9 IGKV8-24   BL6-2       63     4   6.35 FALSE 
#> 10 IGKV3-4    BL6-3       52     3   5.77 TRUE  
#> # ℹ 326 more rows

If two columns are provided to the data_cols argument,
the number of cells containing each combination of genes is
returned.

so |>
  calc_gene_usage(
    data_cols   = c("v_gene", "j_gene"),
    cluster_col = "sample",
    return_df   = TRUE
  )
#> # A tibble: 1,062 × 7
#>    v_gene     j_gene sample n_cells  freq    pct shared
#>    <chr>      <chr>  <chr>    <dbl> <int>  <dbl> <lgl> 
#>  1 IGKV5-43   IGKJ2  MD4-2       55    55 100    TRUE  
#>  2 IGKV5-43   IGKJ2  MD4-3       54    51  94.4  TRUE  
#>  3 IGKV5-43   IGKJ2  MD4-1       50    47  94    TRUE  
#>  4 IGKV14-111 IGKJ2  BL6-2       63     4   6.35 FALSE 
#>  5 IGKV10-96  IGKJ1  BL6-3       52     3   5.77 TRUE  
#>  6 IGLV1      IGLJ1  BL6-3       52     3   5.77 TRUE  
#>  7 IGKV10-96  IGKJ2  BL6-1       55     3   5.45 TRUE  
#>  8 IGKV10-96  IGKJ1  BL6-2       63     3   4.76 TRUE  
#>  9 IGKV6-15   IGKJ5  BL6-3       52     2   3.85 TRUE  
#> 10 IGKV10-96  IGKJ2  BL6-3       52     2   3.85 TRUE  
#> # ℹ 1,052 more rows
…
