TCR analysis • djvdj
…
Take a look at the meta.data to see the V(D)J data added to the object.

vdj_cols <- c(
  "clonotype_id", "cdr3",
  "chains", "v_gene", 
  "j_gene", "reads",
  "umis"
)

so_tcr@meta.data %>%
  as_tibble() %>%
  filter(!is.na(clonotype_id)) %>%
  select(all_of(vdj_cols))
#> # A tibble: 3,850 x 7
#>    clonotype_id     cdr3             chains  v_gene      j_gene    reads   umis 
#>    <chr>            <chr>            <chr>   <chr>       <chr>     <chr>   <chr>
#>  1 WT_DN3_GE_clono… CAVQGANTEVFF     TRB     TRBV17      TRBJ1-1   42590   72   
#>  2 WT_DN3_GE_clono… CASSHPGQNSGNTLYF TRB     TRBV5       TRBJ1-3   12670   17   
#>  3 WT_DN3_GE_clono… CASSHWGETLYF     TRB     TRBV5       TRBJ2-3   31772   46   
#>  4 WT_DN3_GE_clono… CGARAQGLYNSPLYF  TRB     TRBV20      TRBJ1-6   7124    15   
#>  5 WT_DN3_GE_clono… CTAPAGGQNTEVFF   TRB     TRBV1       TRBJ1-1   4744    8    
#>  6 WT_DN3_GE_clono… CASSQDLDWGGEQFF  TRB     TRBV5       TRBJ2-1   34966   52   
#>  7 WT_DN3_GE_clono… CASRTGGCYEQYF;C… TRB;TRB TRBV13-1;T… TRBJ2-7;… 4166;6… 7;171
#>  8 WT_DN3_GE_clono… CASSPGTENTLYF    TRB     TRBV12-2    TRBJ2-4   9180    18   
#>  9 WT_DN3_GE_clono… CASSLKGARSDYTF   TRB     TRBV12-1    TRBJ1-2   19742   29   
#> 10 WT_DN3_GE_clono… CASRLTGRDSDYTF;… TRB;TRB TRBV15;TRB… TRBJ1-2;… 28860;… 48;22
#> # … with 3,840 more rows
…
For example using filter_vdj() we can remove V(D)J data for cells that have minimal UMI support. To do this we use the expression all(umis > 2). This means that all semicolon-separated values present in the umis column must be greater than 2. Setting filter_cells = FALSE means the cell will remain in the object, but the V(D)J data will be removed.

so_tcr <- filter_vdj(
  sobj_in      = so_tcr,                    # Seurat object
  filt         = all(umis > 2),             # Condition for filtering
  filter_cells = FALSE                      # Should cells be removed from object
)

# Take a look at the meta.data
so_tcr@meta.data %>%
  as_tibble() %>%
  filter(!is.na(clonotype_id)) %>%
  select(all_of(vdj_cols))
#> # A tibble: 3,725 x 7
#>    clonotype_id     cdr3             chains  v_gene      j_gene    reads   umis 
#>    <chr>            <chr>            <chr>   <chr>       <chr>     <chr>   <chr>
#>  1 WT_DN3_GE_clono… CAVQGANTEVFF     TRB     TRBV17      TRBJ1-1   42590   72   
#>  2 WT_DN3_GE_clono… CASSHPGQNSGNTLYF TRB     TRBV5       TRBJ1-3   12670   17   
#>  3 WT_DN3_GE_clono… CASSHWGETLYF     TRB     TRBV5       TRBJ2-3   31772   46   
#>  4 WT_DN3_GE_clono… CGARAQGLYNSPLYF  TRB     TRBV20      TRBJ1-6   7124    15   
#>  5 WT_DN3_GE_clono… CTAPAGGQNTEVFF   TRB     TRBV1       TRBJ1-1   4744    8    
#>  6 WT_DN3_GE_clono… CASSQDLDWGGEQFF  TRB     TRBV5       TRBJ2-1   34966   52   
#>  7 WT_DN3_GE_clono… CASRTGGCYEQYF;C… TRB;TRB TRBV13-1;T… TRBJ2-7;… 4166;6… 7;171
#>  8 WT_DN3_GE_clono… CASSPGTENTLYF    TRB     TRBV12-2    TRBJ2-4   9180    18   
#>  9 WT_DN3_GE_clono… CASSLKGARSDYTF   TRB     TRBV12-1    TRBJ1-2   19742   29   
#> 10 WT_DN3_GE_clono… CASRLTGRDSDYTF;… TRB;TRB TRBV15;TRB… TRBJ1-2;… 28860;… 48;22
#> # … with 3,715 more rows
…
The V(D)J data imported from Cell Ranger will include clonotypes that do not have paired alpha and beta chains. Using the mutate_vdj() function, we can add a new cell label to the meta.data to allow for easy visualization of these cells.

In this example we create a new column (uniq_chains) that summarizes the unique chains identified for each cell. We can then overlay these cell labels on a UMAP projection.

so_tcr <- mutate_vdj(
  sobj_in     = so_tcr,                                # Seurat object
  uniq_chains = str_c(unique(chains), collapse = "_")  # New column
)

# Take a look at the meta.data
so_tcr@meta.data %>%
  as_tibble() %>%
  filter(!is.na(clonotype_id), n_chains > 2) %>%
  select(all_of(vdj_cols), uniq_chains)
#> # A tibble: 83 x 8
#>    clonotype_id  cdr3       chains  v_gene    j_gene    reads  umis  uniq_chains
#>    <chr>         <chr>      <chr>   <chr>     <chr>     <chr>  <chr> <chr>      
#>  1 WT_DN4_GE_cl… CALVMNYNQ… TRA;TR… TRAV13-1… TRAJ23;T… 16886… 13;1… TRA_TRB    
#>  2 WT_DN4_GE_cl… CAAYSGGSN… TRA;TR… TRAV14-3… TRAJ53;T… 12106… 14;8… TRA_TRB    
#>  3 WT_DN4_GE_cl… CVVVDLPGT… TRA;TR… TRAV11;T… TRAJ28;T… 6974;… 7;11… TRA_TRB    
#>  4 WT_DN4_GE_cl… CAARRGSNY… TRA;TR… TRAV14D-… TRAJ33;T… 20144… 13;3… TRA_TRB    
#>  5 WT_DN4_GE_cl… CVAHNNAGA… TRA;TR… TRAV11D;… TRAJ39;T… 7230;… 5;10… TRA_TRB    
#>  6 WT_DN4_GE_cl… CAASTSGSW… TRA;TR… TRAV7D-2… TRAJ22;T… 18152… 11;8… TRA_TRB    
#>  7 WT_DN4_GE_cl… CALLASSSF… TRA;TR… TRAV12-1… TRAJ50;T… 12942… 19;5… TRA_TRB    
#>  8 WT_DN4_GE_cl… CAPGTGGYK… TRA;TR… TRAV13-2… TRAJ12;T… 11882… 13;4… TRA_TRB    
#>  9 WT_DN4_GE_cl… CAASALRDS… TRA;TR… TRAV14N-… TRAJ13;T… 13372… 8;15… TRA_TRB    
#> 10 WT_DN4_GE_cl… CAPDTNAYK… TRA;TR… TRAV13D-… TRAJ30;T… 11016… 7;13… TRA_TRB    
#> # … with 73 more rows
…
Gene Usage

The V(D)J data imported from Cell Ranger also includes the specific genes detected for each cell. The function calc_usage() can be used to calculate the fraction of cells that express different V(D)J genes. This function will produce a table summarizing the results. To only include results for a certain chain, the chain and chain_col arguments can be used to specify the meta.data column containing the chains detected for each cell. By default the results for all chains will be included.

In this example we are summarizing the usage of different V genes for the TRB chain

calc_usage(
  sobj_in     = so_tcr,                     # Seurat object
  gene_cols   = "v_gene",                   # meta.data column containing genes
  cluster_col = "orig.ident",               # meta.data column containing cell labels
  chain       = "TRB",                      # Chain to use for filtering genes
  chain_col   = "chains"                    # meta.data column containing chains
)
#> # A tibble: 92 x 5
#>    v_gene orig.ident n_cells  freq   pct
#>    <chr>  <chr>        <dbl> <int> <dbl>
#>  1 None   WT_DN3         592     0 0    
#>  2 None   WT_DN4         866    11 1.27 
#>  3 None   KI_DN3         719     0 0    
#>  4 None   KI_DN4        1548     6 0.388
#>  5 TRBV1  WT_DN3         592    23 3.89 
#>  6 TRBV1  WT_DN4         866    37 4.27 
#>  7 TRBV1  KI_DN3         719    34 4.73 
#>  8 TRBV1  KI_DN4        1548    64 4.13 
#>  9 TRBV10 WT_DN3         592    31 5.24 
#> 10 TRBV10 WT_DN4         866    57 6.58 
#> # … with 82 more rows
…
